\relax 
\@writefile{toc}{\contentsline {section}{\numberline {1}Introduction}{1}}
\@writefile{loa}{\contentsline {algorithm}{\numberline {1}{\ignorespaces Pares de buffer com Sentinela}}{1}}
\newlabel{alg:soma-openmp}{{1}{1}}
\@writefile{lof}{\contentsline {figure}{\numberline {1}{\ignorespaces buffer}}{2}}
\newlabel{threads_openmp}{{1}{2}}
